Data
…
---

.pull-left45[

# Inspect content

```r
# inspect baselers via print
baselers
```

```
# A tibble: 10,000 × 20
     id sex      age height weight
  <dbl> <chr>  <dbl>  <dbl>  <dbl>
1     1 male      44   174.  113. 
2     2 male      65   180.   75.2
3     3 female    31   168.   55.5
4     4 male      27   209    93.8
5     5 male      24   177.   NA  
  income educa…¹ confe…² child…³ happi…⁴
   <dbl> <chr>   <chr>     <dbl>   <dbl>
1   6300 SEK_III cathol…       2       5
2  10900 obliga… confes…       2       7
3   5100 SEK_III <NA>          2       7
4   4200 SEK_III cathol…       2       7
5   4000 SEK_III cathol…       1       5
# … with 9,995 more rows, and abbreviated
#   variable names ¹​education, ²​confession,
#   ³​children, ⁴​happiness
# ℹ Use `print(n = ...)` to see more rows
```
…
.pull-left45[

# Change/Add via <high>`$`</high>

```r
# compute age in months
baselers$age <- baselers$age * 12

# inspect baselers
baselers
```

```
# A tibble: 10,000 × 20
     id sex      age height weight
  <dbl> <chr>  <dbl>  <dbl>  <dbl>
1     1 male     528   174.  113. 
2     2 male     780   180.   75.2
3     3 female   372   168.   55.5
4     4 male     324   209    93.8
5     5 male     288   177.   NA  
  income educa…¹ confe…² child…³ happi…⁴
   <dbl> <chr>   <chr>     <dbl>   <dbl>
1   6300 SEK_III cathol…       2       5
2  10900 obliga… confes…       2       7
3   5100 SEK_III <NA>          2       7
4   4200 SEK_III cathol…       2       7
5   4000 SEK_III cathol…       1       5
# … with 9,995 more rows, and abbreviated
#   variable names ¹​education, ²​confession,
#   ³​children, ⁴​happiness
# ℹ Use `print(n = ...)` to see more rows
```
…
