Case study: Clinical
…
## read in datasets
trial_df <- read_csv("1_Data/dimarta_trial.csv")
demographics_df <- read_csv("1_Data/dimarta_demographics.csv")
biomarker_df <- read_csv("1_Data/dimarta_biomarker.csv")

Get a first impression of the objects you just created by exploring
them with a mixture of the View(), head(),
names(), and str() functions. Were they all
loaded correctly?

trial_df

# A tibble: 300 × 6
  PatientID   arm histamine…¹ hista…² qol_s…³
  <chr>     <dbl>       <dbl>   <dbl>   <dbl>
1 txdjezeo      1        58.6    67.0       3
2 htxfjlxk      3        36.1    28.0       3
3 vkdqhyez      1        57.7    57.3       2
4 dbuvrwfq      3        56.6    57.4       2
5 ydaitaah      2        64.7    67.9       5
# … with 295 more rows, and abbreviated
#   variable names ¹​histamine_start,
#   ²​histamine_end, ³​qol_start
# ℹ Use `print(n = ...)` to see more rows

demographics_df

# A tibble: 300 × 5
  PatientID   age gender site  diseasestatus
  <chr>     <dbl>  <dbl> <chr> <chr>        
1 pkyivajv     36      0 Tokyo Mid          
2 dbuvrwfq     39      0 Paris Late         
3 jhuztppp     30      0 Tokyo Mid          
4 qejexgza     34      1 Tokyo Late         
5 cszrjxju     41      1 Tokyo Late         
# … with 295 more rows
# ℹ Use `print(n = ...)` to see more rows

biomarker_df

# A tibble: 900 × 3
  PatientID Biomarker BiomarkerStatus
  <chr>     <chr>     <lgl>          
1 ygazqssv  dw        FALSE          
2 qosueuyw  ms        FALSE          
3 bhhykjvw  ms        FALSE          
4 ifajorty  np        TRUE           
5 gxnsybdt  ms        FALSE          
# … with 895 more rows
# ℹ Use `print(n = ...)` to see more rows
…
Now, using the left_join function, add the
biomarker_wide_df data to the dimarta_df data!
Now you should have all of the data in a single dataframe called
dimarta_df

dimarta_df <- dimarta_df %>% 
  left_join(biomarker_wide_df)

View dimarta_df to make sure the data look correct! The
data should have one row for each patient, and 13 separate columns,
including dw, ms, and np

dimarta_df

# A tibble: 300 × 14
  PatientID StudyArm histam…¹ hista…² qol_s…³
  <chr>     <chr>       <dbl>   <dbl>   <dbl>
1 txdjezeo  placebo      58.6    67.0       3
2 htxfjlxk  dimarta      36.1    28.0       3
3 vkdqhyez  placebo      57.7    57.3       2
4 dbuvrwfq  dimarta      56.6    57.4       2
5 ydaitaah  adiclax      64.7    67.9       5
# … with 295 more rows, and abbreviated
#   variable names ¹​histamine_start,
#   ²​histamine_end, ³​qol_start
# ℹ Use `print(n = ...)` to see more rows
…
Find out how many men and women were assigned to each study arm
(Hint: You can use very similar code to what you used above, just add a
second grouping variable!)

dimarta_df %>%
  group_by(StudyArm, gender_c) %>%
    summarise(Counts = n())

# A tibble: 6 × 3
# Groups:   StudyArm [3]
  StudyArm gender_c Counts
  <chr>    <chr>     <int>
1 adiclax  female       41
2 adiclax  male         59
3 dimarta  female       49
4 dimarta  male         51
5 placebo  female       50
# … with 1 more row
# ℹ Use `print(n = ...)` to see more rows
…
Add a new column to dimarta_df called
qol_change that shows the change in patient’s quality of
life.

dimarta_df <- dimarta_df %>%
  mutate(
    qol_change = qol_end - qol_start
  )

# Look at result
dimarta_df %>% 
  select(qol_change)

# A tibble: 300 × 1
  qol_change
       <dbl>
1          0
2          1
3          0
4          1
5          2
# … with 295 more rows
# ℹ Use `print(n = ...)` to see more rows
…
