Wrangling
…
]

.pull-right45[

```
# A tibble: 10 × 6
     ID   age   arm arm_lab time  value
  <dbl> <dbl> <dbl> <chr>   <chr> <dbl>
1     1    37     1 placebo t_1     123
2     1    37     1 placebo t_2     135
3     2    65     2 drug    t_1     143
4     2    65     2 drug    t_2     140
5     3    57     2 drug    t_1      NA
# … with 5 more rows
# ℹ Use `print(n = ...)` to see more rows
```

]

---

# `pivot_wider()`

.pull-left45[

```
# A tibble: 10 × 6
     ID   age   arm arm_lab time  value
  <dbl> <dbl> <dbl> <chr>   <chr> <dbl>
1     1    37     1 placebo t_1     123
2     1    37     1 placebo t_2     135
3     2    65     2 drug    t_1     143
4     2    65     2 drug    t_2     140
5     3    57     2 drug    t_1      NA
# … with 5 more rows
# ℹ Use `print(n = ...)` to see more rows
```
…
