Plotting II
…
Rows: 1071 Columns: 36
── Column specification ──────────────────────────────────────────────────────────────────────────────────────
Delimiter: ","
chr  (2): communityname, state
dbl (34): population, householdsize, pctUrban, medIncome, pctWSocSec, pctWRetire, whitePerCap, blackPerCap...

ℹ Use `spec()` to retrieve the full column specification for this data.
ℹ Specify the column types or set `show_col_types = FALSE` to quiet this message.

Take a look at the first few rows of the data set(s) by printing
them to the console.

crime

# A tibble: 1,071 × 36
  communityname state popul…¹ house…² pctUr…³
  <chr>         <chr>   <dbl>   <dbl>   <dbl>
1 BerkeleyHeig… NJ      11980    3.1      100
2 Marpletownsh… PA      23123    2.82     100
3 Norwoodtown   MA      28700    2.6      100
4 Wacocity      TX     103590    2.62     100
5 Shermancity   TX      31601    2.54     100
# … with 1,066 more rows, and abbreviated
#   variable names ¹​population,
#   ²​householdsize, ³​pctUrban
# ℹ Use `print(n = ...)` to see more rows
…
